<svg xmlns="http://www.w3.org/2000/svg" width="340" height="215" fill="none" viewBox="0 0 340 215">
    <path fill="#A086B5" d="M330 4c5.523 0 10 4.477 10 10v128.542s-44.691 7.096-73.58 2.174c-28.642-4.921-54.321-16.137-75.803-17.854-24.197-2.06-63.21 6.066-87.901 29.757C78.025 180.311 32.593 196.334 0 189.353V14C0 8.477 4.477 4 10 4h320z" opacity=".2"/>
    <path fill="#146C33" d="M144.984 100.991l-28.406 16.724c-7.214-2.211-16.401-1.531-22.431 2.041-7.383 4.365-7.327 11.338.113 15.534 1.69.964 3.55 1.701 5.58 2.211 1.408.34 2.93.623 4.452.793 5.918.567 12.23-.453 16.739-3.174 5.523-3.232 6.876-7.937 4.114-11.906l3.945-2.324-.112-2.495 4.114-.056-.113-2.325 4.115-.057-.113-2.324 4.114-.057-.113-2.324 4.115-.057-.113-2.324 4.396-.057 1.353-.794 1.465-6.179-7.214-.85zm-39.96 32.031c-1.916 1.134-5.016 1.134-6.988.057-1.916-1.077-1.973-2.892-.057-4.025 1.917-1.134 5.016-1.134 6.989-.057 1.973 1.077 1.973 2.891.056 4.025z" filter="url(#a)" opacity=".2"/>
    <path fill="#146C33" d="M183.084 189.998l-38.326-22.167c-2.592-1.474-2.254-4.138.733-5.839l37.198-21.6c2.987-1.757 7.496-1.927 10.089-.397l38.325 22.167c2.592 1.474 2.254 4.139-.733 5.84l-37.198 21.6c-2.987 1.7-7.496 1.87-10.088.396z" filter="url(#b)" opacity=".2"/>
    <path fill="#2D9251" d="M228.003 139.769l-6.651-3.856 24.404-14.173c1.127-.68 1.127-1.757 0-2.438l-24.911-14.456c-1.127-.681-3.044-.681-4.171 0l-24.404 14.173-6.65-3.855 24.404-14.173c4.79-2.778 12.624-2.778 17.415 0l24.968 14.513c4.79 2.778 4.79 7.313 0 10.148l-24.404 14.117z"/>
    <path fill="#5BB031" d="M238.711 141.469c0-3.571-2.141-7.71-4.79-9.241l-44.243-25.682c-1.184-.68-2.255-.737-3.1-.283l-52.81 30.898 51.063 38.721 52.021-30.387c.169-.057.338-.171.45-.284.846-.68 1.409-1.984 1.409-3.742z"/>
    <path fill="#146C33" d="M184.774 175.882l52.021-30.387a1.24 1.24 0 0 0 .451-.284c.845-.68 1.409-1.984 1.409-3.742 0-1.7-.507-3.515-1.296-5.159l-59.348 34.47 6.763 5.102z"/>
    <path fill="#2D9251" d="M181.449 175.712l-44.243-25.682c-2.649-1.531-4.79-5.669-4.79-9.241s2.141-5.216 4.79-3.628l44.243 25.682c2.649 1.53 4.791 5.669 4.791 9.24 0 3.515-2.142 5.16-4.791 3.629z"/>
    <path fill="#fff" d="M174.855 167.038l-5.298-3.062c-.507-.283-.958-1.133-.958-1.814 0-.737.451-1.02.958-.737l5.298 3.062c.507.283.958 1.133.958 1.814 0 .737-.451 1.077-.958.737z"/>
    <path fill="#146C33" d="M112.351 93.564l9.074 5.216 9.3-5.5-.057-2.38-.056.056v-.17h4.114l-.056-2.381h4.058V86.08l4.058-.056-.056-2.325 4.058-.056v-2.325l4.283-.057 1.353-.793 1.465-6.123v-2.381l-.733 2.267-6.538-.85-34.267 20.183z"/>
    <path fill="#5BB031" d="M121.426 96.398l9.243-5.499-.113-2.494h4.114l-.056-2.381h4.114l-.113-2.325 4.115-.056-.113-2.325 4.171-.057-.113-2.324 4.396-.057 1.353-.793 1.465-6.123-7.27-.964-34.324 20.183 9.131 5.215z"/>
    <path fill="#146C33" d="M127.569 92.77c-.958-1.36-2.311-2.608-4.227-3.628-1.296-.737-2.818-1.36-4.34-1.871l-6.707 3.968 9.131 5.16 6.143-3.629z"/>
    <path fill="#2D9251" d="M153.664 72.984l.225-1.02-1.24-.17-28.969 17.064 1.522.907 28.462-16.78z"/>
    <path fill="#D3D0CF" d="M90.37 101.104l-.112-3.402 1.07 2.268-.957 1.134z"/>
    <path fill="#146C33" d="M95.951 108.701c7.44 4.252 19.444 4.138 26.771-.17 3.72-2.155 5.524-4.989 5.467-7.824l-.112-3.572-.62.68c-.846-1.757-2.48-3.457-4.904-4.818-7.439-4.252-19.444-4.139-26.771.17-7.27 4.309-7.214 11.282.17 15.534zm10.765-6.293c1.916 1.077 1.973 2.891.056 4.025-1.916 1.134-5.016 1.134-6.988.057-1.917-1.077-1.973-2.892 0-4.025 1.86-1.191 4.959-1.191 6.932-.057z"/>
    <path fill="#F2F2F2" d="M95.894 105.356c7.44 4.252 19.444 4.138 26.771-.17 7.384-4.366 7.327-11.339-.112-15.534-7.44-4.252-19.445-4.139-26.772.17-7.383 4.309-7.326 11.282.113 15.534zm10.709-6.35c1.916 1.077 1.972 2.892.056 4.025-1.916 1.134-5.016 1.134-6.989.057-1.916-1.077-1.972-2.891-.056-4.025 1.916-1.134 5.072-1.19 6.989-.057z"/>
    <path fill="#2D9251" d="M104.462 107.17c-1.635.284-3.438.057-4.735-.68-1.409-.794-1.803-1.928-1.183-2.948l-3.382-2.665-3.494-3.968c-2.706 3.968-1.297 8.674 4.283 11.848 2.424 1.418 5.185 2.211 8.285 2.665l.226-4.252z"/>
    <path fill="#5BB031" d="M95.894 105.356c1.69.964 3.55 1.701 5.58 2.211 1.409.34 2.931.624 4.452.794 5.918.567 12.231-.454 16.739-3.175 7.384-4.366 7.327-11.339-.112-15.534-7.44-4.252-19.445-4.139-26.772.17-7.383 4.309-7.326 11.282.113 15.534zm10.709-6.35c1.916 1.077 1.972 2.892.056 4.025-1.916 1.134-5.016 1.134-6.989.057-1.916-1.077-1.972-2.891-.056-4.025 1.916-1.134 5.072-1.19 6.989-.057z"/>
    <path fill="#146C33" d="M92.343 97.646c.338-2.155 1.973-4.309 4.79-5.953 6.539-3.855 17.247-3.969 23.841-.17 3.269 1.87 4.96 4.365 4.96 6.86.451-2.835-1.183-5.726-4.903-7.88-6.594-3.8-17.303-3.686-23.84.17-3.213 1.87-4.848 4.421-4.848 6.973z"/>
    <path fill="#146C33" d="M87.89 128.43a7.574 7.574 0 0 1-3.719-.964c-2.649-1.531-4.114-4.592-4.17-8.617-.057-7.314 5.015-16.328 11.328-20.07 3.438-2.04 6.82-2.324 9.468-.793 1.128.623 2.086 1.587 2.762 2.778.902 1.587 1.409 3.515 1.409 5.839.056 7.314-5.016 16.328-11.328 20.069-1.973 1.134-3.945 1.758-5.75 1.758zm9.188-28.687c-1.353 0-2.818.454-4.396 1.418-5.58 3.288-10.033 11.225-9.976 17.688 0 3.005 1.014 5.272 2.818 6.293 1.803 1.02 4.227.737 6.82-.794 5.58-3.288 10.032-11.225 9.975-17.688 0-1.758-.394-3.345-1.071-4.479-.451-.85-1.014-1.417-1.747-1.814-.733-.454-1.522-.624-2.423-.624z"/>
    <path fill="#5BB031" d="M100.572 105.696L105.87 107l.733-3.969c-1.917 1.134-5.016 1.134-6.989.057l.958 2.608z"/>
    <path fill="#5BB031" d="M95.894 105.356c1.69.964 3.55 1.701 5.58 2.211 1.409.34 2.93.624 4.452.794 5.918.567 12.23-.454 16.739-3.175l-21.529-.51-5.242.68z"/>
    <path fill="#2D9251" d="M103.841 108.077s-2.311-.397-4.678-1.19v3.344c1.127.397 2.987.964 4.621 1.191 4.904.624.057-3.345.057-3.345z"/>
    <path fill="#2D9251" d="M100.403 107.227a25.35 25.35 0 0 1-3.044-1.134c-2.874-1.361.79 3.685.79 3.685s.957.397 2.31.794v-3.345h-.056z"/>
    <path fill="#E1615D" d="M37.556 16l15.556 15.556-15.556 15.556L22 31.556z"/>
    <path fill="#8D5794" d="M42.142 162h20v20h-20z" filter="url(#c)" transform="rotate(45 42.142 162)"/>
    <path fill="#B7C055" d="M293.142 38h20v20h-20z" filter="url(#d)" transform="rotate(45 293.142 38)"/>
    <path fill="#B7C055" d="M100.364 52l6.364 6.364-6.364 6.364L94 58.364z"/>
    <path fill="#52B78C" d="M13.485 95l8.485 8.485-8.485 8.485L5 103.485z"/>
    <path fill="#8D5794" d="M255.364 79l6.364 6.364-6.364 6.364L249 85.364z"/>
    <path fill="#52B78C" d="M201.485 16h10v10h-10z" filter="url(#e)" transform="rotate(45 201.485 16)"/>
    <path fill="#E1615D" d="M315.485 140l8.485 8.485-8.485 8.486-8.485-8.486z"/>
    <defs>
        <filter id="a" width="103.554" height="77.455" x="68.644" y="80.99" color-interpolation-filters="sRGB" filterUnits="userSpaceOnUse">
            <feFlood flood-opacity="0" result="BackgroundImageFix"/>
            <feBlend in="SourceGraphic" in2="BackgroundImageFix" result="shape"/>
            <feGaussianBlur result="effect1_foregroundBlur" stdDeviation="10"/>
        </filter>
        <filter id="b" width="129.835" height="92.049" x="123.013" y="118.951" color-interpolation-filters="sRGB" filterUnits="userSpaceOnUse">
            <feFlood flood-opacity="0" result="BackgroundImageFix"/>
            <feBlend in="SourceGraphic" in2="BackgroundImageFix" result="shape"/>
            <feGaussianBlur result="effect1_foregroundBlur" stdDeviation="10"/>
        </filter>
        <filter id="c" width="68.284" height="68.284" x="8" y="146" color-interpolation-filters="sRGB" filterUnits="userSpaceOnUse">
            <feFlood flood-opacity="0" result="BackgroundImageFix"/>
            <feColorMatrix in="SourceAlpha" values="0 0 0 0 0 0 0 0 0 0 0 0 0 0 0 0 0 0 127 0"/>
            <feOffset dy="4"/>
            <feGaussianBlur stdDeviation="10"/>
            <feColorMatrix values="0 0 0 0 0.615686 0 0 0 0 0.435294 0 0 0 0 0.639216 0 0 0 0.2 0"/>
            <feBlend in2="BackgroundImageFix" result="effect1_dropShadow"/>
            <feBlend in="SourceGraphic" in2="effect1_dropShadow" result="shape"/>
        </filter>
        <filter id="d" width="68.284" height="68.284" x="259" y="22" color-interpolation-filters="sRGB" filterUnits="userSpaceOnUse">
            <feFlood flood-opacity="0" result="BackgroundImageFix"/>
            <feColorMatrix in="SourceAlpha" values="0 0 0 0 0 0 0 0 0 0 0 0 0 0 0 0 0 0 127 0"/>
            <feOffset dy="4"/>
            <feGaussianBlur stdDeviation="10"/>
            <feColorMatrix values="0 0 0 0 0.717647 0 0 0 0 0.752941 0 0 0 0 0.333333 0 0 0 0.2 0"/>
            <feBlend in2="BackgroundImageFix" result="effect1_dropShadow"/>
            <feBlend in="SourceGraphic" in2="effect1_dropShadow" result="shape"/>
        </filter>
        <filter id="e" width="54.142" height="54.142" x="174.414" y="0" color-interpolation-filters="sRGB" filterUnits="userSpaceOnUse">
            <feFlood flood-opacity="0" result="BackgroundImageFix"/>
            <feColorMatrix in="SourceAlpha" values="0 0 0 0 0 0 0 0 0 0 0 0 0 0 0 0 0 0 127 0"/>
            <feOffset dy="4"/>
            <feGaussianBlur stdDeviation="10"/>
            <feColorMatrix values="0 0 0 0 0.321569 0 0 0 0 0.717647 0 0 0 0 0.54902 0 0 0 0.2 0"/>
            <feBlend in2="BackgroundImageFix" result="effect1_dropShadow"/>
            <feBlend in="SourceGraphic" in2="effect1_dropShadow" result="shape"/>
        </filter>
    </defs>
</svg>
